{
    "label": "Featured",
    "paginated_data": {
        "count": 56,
        "previous": null,
        "next": "https://emapi-sandbox.yougotagift.com/uae/api/v3/brands/featured/?api_key=2vq1M9ye4eV6H1Mr&api_secret=wnRY14QoA99B4Ae6wn2CU2y8&category=21&page=2"
    },
    "brands": [
        {
            "id": 269,
            "name": "Malabar Gold & Diamonds",
            "logo": "https://scdn.yougotagift.com/media/images/cards/fb/tmp9poqz9.png",
            "product_image": "https://scdn.yougotagift.com/media/cache/72/da/72da5ba398cb249e0bb39c3e737d0118.jpg",
            "short_tagline": "Jewelry",
            "brand_code": "MALA",
            "is_generic": false,
            "seo_name": "malabar-gold-diamonds",
            "currency": "AED",
            "detail_url": "https://emapi-sandbox.yougotagift.com/api/v3/brands/269/",
            "redemption_tag": null,
            "detail_url_v5": "https://emapi-sandbox.yougotagift.com/api/v3/brands/v5/269/"
        },
        {
            "id": 130,
            "name": "Joyalukkas",
            "logo": "https://scdn.yougotagift.com/media/images/cards/fb/tmpzKtTwS.png",
            "product_image": "https://scdn.yougotagift.com/media/cache/c2/b5/c2b5c49c777c9c24d28a3fa0fc3f90ea.jpg",
            "short_tagline": "Jewelry",
            "brand_code": "JOYAE",
            "is_generic": false,
            "seo_name": "joyalukkas-gift-card-ae",
            "currency": "AED",
            "detail_url": "https://emapi-sandbox.yougotagift.com/api/v3/brands/130/",
            "redemption_tag": null,
            "detail_url_v5": "https://emapi-sandbox.yougotagift.com/api/v3/brands/v5/130/"
        },
        {
            "id": 337,
            "name": "Zara Home | Qanz Gift Card",
            "logo": "https://scdn.yougotagift.com/media/images/cards/fb/tmpuI432L.jpg",
            "product_image": "https://scdn.yougotagift.com/media/cache/8b/13/8b13258a333550335c9dd8c0f1b9483d.jpg",
            "short_tagline": "Home Furniture",
            "brand_code": "ZARAH",
            "is_generic": false,
            "seo_name": "zara-home",
            "currency": "AED",
            "detail_url": "https://emapi-sandbox.yougotagift.com/api/v3/brands/337/",
            "redemption_tag": null,
            "detail_url_v5": "https://emapi-sandbox.yougotagift.com/api/v3/brands/v5/337/"
        },
        {
            "id": 52,
            "name": "LIALI Jewellery",
            "logo": "https://scdn.yougotagift.com/media/images/cards/fb/tmpUprSTV.png",
            "product_image": "https://scdn.yougotagift.com/media/cache/97/64/97641400f5ace511423beecbd5b92fe9.jpg",
            "short_tagline": "Jewelry",
            "brand_code": "LIALI",
            "is_generic": false,
            "seo_name": "liali-jewellery",
            "currency": "AED",
            "detail_url": "https://emapi-sandbox.yougotagift.com/api/v3/brands/52/",
            "redemption_tag": null,
            "detail_url_v5": "https://emapi-sandbox.yougotagift.com/api/v3/brands/v5/52/"
        },
        {
            "id": 197,
            "name": "Inglot | Apparel Gift Card",
            "logo": "https://scdn.yougotagift.com/media/images/cards/fb/tmpnIiPmD.png",
            "product_image": "https://scdn.yougotagift.com/media/cache/f3/a0/f3a035250e5a4ccbae98937415679c01.jpg",
            "short_tagline": "Beauty & Cosmetics",
            "brand_code": "INGLOT",
            "is_generic": false,
            "seo_name": "inglot",
            "currency": "AED",
            "detail_url": "https://emapi-sandbox.yougotagift.com/api/v3/brands/197/",
            "redemption_tag": null,
            "detail_url_v5": "https://emapi-sandbox.yougotagift.com/api/v3/brands/v5/197/"
        },
        {
            "id": 777,
            "name": "Oasis Mall - Sharjah",
            "logo": "https://scdn.yougotagift.com/media/images/cards/fb/tmpWCFEJW.png",
            "product_image": "https://scdn.yougotagift.com/media/cache/1d/0b/1d0bd248e9133319c86130af86330182.jpg",
            "short_tagline": "Shopping Mall",
            "brand_code": "OASMSH",
            "is_generic": false,
            "seo_name": "oasis-mall-sharjah",
            "currency": "AED",
            "detail_url": "https://emapi-sandbox.yougotagift.com/api/v3/brands/777/",
            "redemption_tag": null,
            "detail_url_v5": "https://emapi-sandbox.yougotagift.com/api/v3/brands/v5/777/"
        },
        {
            "id": 1065,
            "name": "Namshi",
            "logo": "https://scdn.yougotagift.com/media/images/cards/fb/tmptorvGC.jpg",
            "product_image": "https://scdn.yougotagift.com/media/cache/16/a5/16a57d40f8afbfd5c17b4ec54b5e4fb5.jpg",
            "short_tagline": "Online Shopping",
            "brand_code": "NAMAE",
            "is_generic": false,
            "seo_name": "namshi-uae",
            "currency": "AED",
            "detail_url": "https://emapi-sandbox.yougotagift.com/api/v3/brands/1065/",
            "redemption_tag": "Online Friendly",
            "detail_url_v5": "https://emapi-sandbox.yougotagift.com/api/v3/brands/v5/1065/"
        },
        {
            "id": 1000,
            "name": "Centrepoint",
            "logo": "https://scdn.yougotagift.com/media/images/cards/fb/tmpczOA94.png",
            "product_image": "https://scdn.yougotagift.com/media/cache/aa/50/aa506d96a3879dc04f3b754db8259bc4.jpg",
            "short_tagline": "Fashion & Accessories",
            "brand_code": "CNTPAE",
            "is_generic": false,
            "seo_name": "centrepoint-gift-card-ae",
            "currency": "AED",
            "detail_url": "https://emapi-sandbox.yougotagift.com/api/v3/brands/1000/",
            "redemption_tag": "Online Friendly",
            "detail_url_v5": "https://emapi-sandbox.yougotagift.com/api/v3/brands/v5/1000/"
        },
        {
            "id": 341,
            "name": "ZARA | Qanz Gift Card",
            "logo": "https://scdn.yougotagift.com/media/images/cards/fb/tmp5SksUh.jpg",
            "product_image": "https://scdn.yougotagift.com/media/cache/b4/d1/b4d18aa4622d643fa03df08899d1457e.jpg",
            "short_tagline": "Fashion & Accessories",
            "brand_code": "ZARA",
            "is_generic": false,
            "seo_name": "zara",
            "currency": "AED",
            "detail_url": "https://emapi-sandbox.yougotagift.com/api/v3/brands/341/",
            "redemption_tag": null,
            "detail_url_v5": "https://emapi-sandbox.yougotagift.com/api/v3/brands/v5/341/"
        },
        {
            "id": 1028,
            "name": "6thStreet",
            "logo": "https://scdn.yougotagift.com/media/images/cards/fb/tmpcQ44WM.jpg",
            "product_image": "https://scdn.yougotagift.com/media/cache/6e/9c/6e9cb8b0ea9f250edc495a3ea23c2f99.jpg",
            "short_tagline": "Online Shopping",
            "brand_code": "6TH",
            "is_generic": false,
            "seo_name": "6thstreet",
            "currency": "AED",
            "detail_url": "https://emapi-sandbox.yougotagift.com/api/v3/brands/1028/",
            "redemption_tag": "Online Friendly",
            "detail_url_v5": "https://emapi-sandbox.yougotagift.com/api/v3/brands/v5/1028/"
        },
        {
            "id": 192,
            "name": "Tommy Hilfiger | Apparel Gift Card",
            "logo": "https://scdn.yougotagift.com/media/images/cards/fb/tmpL50gDc.png",
            "product_image": "https://scdn.yougotagift.com/media/cache/f7/87/f787d0d1780a42b02ce96b8d482a20c8.jpg",
            "short_tagline": "Fashion, Accessories & Sports",
            "brand_code": "TOMM",
            "is_generic": false,
            "seo_name": "tommy-hilfiger",
            "currency": "AED",
            "detail_url": "https://emapi-sandbox.yougotagift.com/api/v3/brands/192/",
            "redemption_tag": null,
            "detail_url_v5": "https://emapi-sandbox.yougotagift.com/api/v3/brands/v5/192/"
        },
        {
            "id": 202,
            "name": "Charles & Keith | Apparel Gift Card",
            "logo": "https://scdn.yougotagift.com/media/images/cards/fb/tmpSvojF7.png",
            "product_image": "https://scdn.yougotagift.com/media/cache/04/0c/040ce228154e27ea7e6348dd2a2c2c84.jpg",
            "short_tagline": "Fashion, Accessories & Sports",
            "brand_code": "CHARLESKEITH",
            "is_generic": false,
            "seo_name": "charles-keith",
            "currency": "AED",
            "detail_url": "https://emapi-sandbox.yougotagift.com/api/v3/brands/202/",
            "redemption_tag": null,
            "detail_url_v5": "https://emapi-sandbox.yougotagift.com/api/v3/brands/v5/202/"
        },
        {
            "id": 1188,
            "name": "REDTAG",
            "logo": "https://scdn.yougotagift.com/media/images/cards/fb/tmpagAoK2.png",
            "product_image": "https://scdn.yougotagift.com/media/cache/4a/dd/4add655b56ab259cb12963373729290e.jpg",
            "short_tagline": "Fashion & Lifestyle",
            "brand_code": "REDAE",
            "is_generic": false,
            "seo_name": "redtag-gift-card-ae",
            "currency": "AED",
            "detail_url": "https://emapi-sandbox.yougotagift.com/api/v3/brands/1188/",
            "redemption_tag": null,
            "detail_url_v5": "https://emapi-sandbox.yougotagift.com/api/v3/brands/v5/1188/"
        },
        {
            "id": 336,
            "name": "Pull & Bear | Qanz Gift Card",
            "logo": "https://scdn.yougotagift.com/media/images/cards/fb/tmpwkfym6.jpg",
            "product_image": "https://scdn.yougotagift.com/media/cache/78/3f/783fb22beb64dedeeb9ff823383a0acf.jpg",
            "short_tagline": "Fashion & Accessories ",
            "brand_code": "PULL",
            "is_generic": false,
            "seo_name": "Pull-and-Bear",
            "currency": "AED",
            "detail_url": "https://emapi-sandbox.yougotagift.com/api/v3/brands/336/",
            "redemption_tag": null,
            "detail_url_v5": "https://emapi-sandbox.yougotagift.com/api/v3/brands/v5/336/"
        },
        {
            "id": 185,
            "name": "Aeropostale | Apparel Gift Card",
            "logo": "https://scdn.yougotagift.com/media/images/cards/fb/tmpoeco10.png",
            "product_image": "https://scdn.yougotagift.com/media/cache/5a/6f/5a6f0e23366bbe80be8889d7b6342ec2.jpg",
            "short_tagline": "Fashion, Accessories & Sports",
            "brand_code": "AEROPOSTALE",
            "is_generic": false,
            "seo_name": "aeropostale-gift-card-ae",
            "currency": "AED",
            "detail_url": "https://emapi-sandbox.yougotagift.com/api/v3/brands/185/",
            "redemption_tag": null,
            "detail_url_v5": "https://emapi-sandbox.yougotagift.com/api/v3/brands/v5/185/"
        },
        {
            "id": 187,
            "name": "Calvin Klein | Apparel Gift Card",
            "logo": "https://scdn.yougotagift.com/media/images/cards/fb/tmppDFvfy.png",
            "product_image": "https://scdn.yougotagift.com/media/cache/b2/a2/b2a28a9c97ecfef0cbc51cd7bf634de6.jpg",
            "short_tagline": "Fashion, Accessories & Sports",
            "brand_code": "CALVINKLEIN",
            "is_generic": false,
            "seo_name": "calvin-klein",
            "currency": "AED",
            "detail_url": "https://emapi-sandbox.yougotagift.com/api/v3/brands/187/",
            "redemption_tag": null,
            "detail_url_v5": "https://emapi-sandbox.yougotagift.com/api/v3/brands/v5/187/"
        }
    ],
    "categories": [
        {
            "id": 32,
            "name": "Most Popular",
            "seo_name": "most-popular",
            "image_large": "https://scdn.yougotagift.com/media/cache/cb/e8/cbe8bbfd68207abe337af3b4c91f3010.jpg",
            "image_small": "https://scdn.yougotagift.com/media/cache/ef/10/ef10262426fbb7b8ab96d47cf2a9af89.jpg",
            "title": "Send eGift Cards from home",
            "caption": "",
            "default_display": true,
            "bg_color_code": "#BC927E",
            "tag_type": "Category",
            "icon_image": ""
        },
        {
            "id": 117,
            "name": "Online Friendly",
            "seo_name": "Online-Friendly",
            "image_large": "https://scdn.yougotagift.com/media/cache/8d/e8/8de8162d85339ba2f94a9fb8864dd8cc.jpg",
            "image_small": "https://scdn.yougotagift.com/media/cache/c5/cf/c5cf449f978c8361321d3c9ec2f8c2fc.jpg",
            "title": "Online Friendly eGift Cards",
            "caption": null,
            "default_display": false,
            "bg_color_code": "#E199B8",
            "tag_type": "Category",
            "icon_image": "https://scdn.yougotagift.com/media/tags/ee/eea75784-3e71-40d8-b723-224ec3dc5b04.png"
        },
        {
            "id": 24,
            "name": "Electronics",
            "seo_name": "electronics",
            "image_large": "https://scdn.yougotagift.com/media/cache/03/08/03083c0c6290cc45f113f570f6e12c90.jpg",
            "image_small": "https://scdn.yougotagift.com/media/cache/65/d0/65d07a05a4b489cddd4d944a3002b57a.jpg",
            "title": "Gift Ideas for Tech Lovers",
            "caption": "Digital Gift Cards delivered by Email or SMS",
            "default_display": false,
            "bg_color_code": "#b83e3d",
            "tag_type": "Category",
            "icon_image": "https://scdn.yougotagift.com/media/tags/bc/bccf9ea2-4615-4c7b-901a-f3425007a3a5.png"
        },
        {
            "id": 21,
            "name": "Fashion & Accessories",
            "seo_name": "fashion-accessories",
            "image_large": "https://scdn.yougotagift.com/media/cache/de/38/de38cc3e6238d628834641ea2a492ba9.jpg",
            "image_small": "https://scdn.yougotagift.com/media/cache/fa/c4/fac411175008f66e3ba86fdd1465de90.jpg",
            "title": "Gift Ideas for Fashion Lovers",
            "caption": "Digital Gift Cards delivered by Email or SMS",
            "default_display": false,
            "bg_color_code": "#46b6dc",
            "tag_type": "Category",
            "icon_image": "https://scdn.yougotagift.com/media/tags/fd/fda16b18-9934-4afb-89f8-6c2e3758e342.png"
        },
        {
            "id": 115,
            "name": "Jewellery",
            "seo_name": "jewellery",
            "image_large": "https://scdn.yougotagift.com/media/cache/de/18/de18f13bba60b0fc5ef3ea8491a590bc.jpg",
            "image_small": "https://scdn.yougotagift.com/media/cache/63/8a/638aa0c1ff14147b268d1680ff6ac52e.jpg",
            "title": "",
            "caption": "",
            "default_display": false,
            "bg_color_code": "#221080",
            "tag_type": "Category",
            "icon_image": "https://scdn.yougotagift.com/media/tags/43/43394b52-e3a5-4b42-b448-a8b72d607074.png"
        },
        {
            "id": 99,
            "name": "Beauty & Health",
            "seo_name": "beauty-and-health",
            "image_large": "https://scdn.yougotagift.com/media/cache/78/4c/784c27792491c5a0e4678d9c4b821a0e.jpg",
            "image_small": "https://scdn.yougotagift.com/media/cache/f1/3d/f13d09b5863828b8dd32706308be9b1b.jpg",
            "title": "Gift Ideas for Beauty & Health Lovers",
            "caption": "Digital Gift Cards delivered by Email or SMS",
            "default_display": false,
            "bg_color_code": "#c18c6d",
            "tag_type": "Category",
            "icon_image": "https://scdn.yougotagift.com/media/tags/56/56ebd907-93cb-41ca-9c40-61db8433f2cc.png"
        },
        {
            "id": 97,
            "name": "Grooming, Wellness & Spa for Him",
            "seo_name": "grooming-and-wellness-for-men",
            "image_large": "https://scdn.yougotagift.com/media/cache/fa/a1/faa10af933fa9566a14817960fa44e40.jpg",
            "image_small": "https://scdn.yougotagift.com/media/cache/18/0e/180ef983c80c78cbe384021648de7ca7.jpg",
            "title": "Grooming & Wellness Gift Ideas for Him",
            "caption": "Digital Gift Cards delivered by Email or SMS",
            "default_display": false,
            "bg_color_code": "#987770",
            "tag_type": "Category",
            "icon_image": "https://scdn.yougotagift.com/media/tags/b3/b35293f5-1fb8-408e-95ad-63d19a681bec.png"
        },
        {
            "id": 98,
            "name": "Grooming, Wellness & Spa for Her",
            "seo_name": "grooming-wellness-spa-for-women",
            "image_large": "https://scdn.yougotagift.com/media/cache/ad/b5/adb52a86e265d003aca7190b33ad6d1d.jpg",
            "image_small": "https://scdn.yougotagift.com/media/cache/c1/b2/c1b2cfb9c75699473df6c80ff3b692e1.jpg",
            "title": "Grooming & Wellness Gift Ideas for Her",
            "caption": "Digital Gift Cards delivered by Email or SMS",
            "default_display": false,
            "bg_color_code": "#bf904a",
            "tag_type": "Category",
            "icon_image": "https://scdn.yougotagift.com/media/tags/09/09dcc019-a946-4fe6-b9c5-b5e19f8c8490.png"
        },
        {
            "id": 28,
            "name": "Home & Garden",
            "seo_name": "home-garden",
            "image_large": "https://scdn.yougotagift.com/media/cache/a7/26/a7267f197cc61866ff878bf246f71170.jpg",
            "image_small": "https://scdn.yougotagift.com/media/cache/2c/4f/2c4f769a7809f8f8562b7da4153b28fd.jpg",
            "title": "Gift Ideas for Gardeners",
            "caption": "Digital Gift Cards delivered by Email or SMS",
            "default_display": false,
            "bg_color_code": "#349339",
            "tag_type": "Category",
            "icon_image": "https://scdn.yougotagift.com/media/tags/92/92f153a0-8d16-4286-a289-ad20382341da.png"
        }
    ],
    "selected_category": {
        "id": 21,
        "bg_color_code": "#46b6dc",
        "image_small": "https://scdn.yougotagift.com/media/cache/fa/c4/fac411175008f66e3ba86fdd1465de90.jpg",
        "name": "Fashion & Accessories"
    },
    "tags_count": 23
}

